…
    ## -- Column specification --------------------------------------------------------
    ## Delimiter: ","
    ## chr (8): uid, victim_last, victim_first, victim_race, victim_sex, city, stat...
    ## dbl (4): reported_date, victim_age, lat, lon

    ## 
    ## i Use `spec()` to retrieve the full column specification for this data.
    ## i Specify the column types or set `show_col_types = FALSE` to quiet this message.

``` r
homocide_df %>% 
  count(city_state, resolution)
```

    ## # A tibble: 100 x 3
    ##    city_state    resolution     n
    ##    <chr>         <chr>      <int>
    ##  1 AlbuquerqueNM solved       232
    ##  2 AlbuquerqueNM unsolved     146
    ##  3 AtlantaGA     solved       600
    ##  4 AtlantaGA     unsolved     373
    ##  5 BaltimoreMD   solved      1002
    ##  6 BaltimoreMD   unsolved    1825
    ##  7 Baton RougeLA solved       228
    ##  8 Baton RougeLA unsolved     196
    ##  9 BirminghamAL  solved       453
    ## 10 BirminghamAL  unsolved     347
    ## # ... with 90 more rows
…
